module gitlab.com/gitlab-org/gitlabktl

go 1.14

require (
	github.com/Azure/go-ansiterm v0.0.0-20170929234023-d6e3b3328b78 // indirect
	github.com/MakeNowJust/heredoc v0.0.0-20171113091838-e9091a26100e
	github.com/Microsoft/hcsshim v0.8.7 // indirect
	github.com/containerd/containerd v1.3.0 // indirect
	github.com/containerd/continuity v0.0.0-20190827140505-75bee3e2ccb6 // indirect
	github.com/docker/distribution v2.7.1+incompatible // indirect
	github.com/docker/docker v0.7.3-0.20191112011412-9bcbc6603260
	github.com/docker/go-connections v0.4.0 // indirect
	github.com/google/go-containerregistry v0.0.0-20190322231611-80cc55a02b42 // indirect
	github.com/gosimple/slug v1.4.2
	github.com/konsorten/go-windows-terminal-sequences v1.0.2 // indirect
	github.com/morikuni/aec v0.0.0-20170113033406-39771216ff4c // indirect
	github.com/opencontainers/go-digest v1.0.0-rc1 // indirect
	github.com/opencontainers/image-spec v1.0.1 // indirect
	github.com/opencontainers/runc v0.1.1 // indirect
	github.com/rainycape/unidecode v0.0.0-20150907023854-cb7f23ec59be // indirect
	github.com/sirupsen/logrus v1.4.1
	github.com/spf13/afero v1.2.2
	github.com/stretchr/testify v1.3.0
	github.com/triggermesh/tm v0.0.12-0.20190606132652-fd9e7a4923a0
	github.com/urfave/cli v1.20.0
	gitlab.com/ayufan/golang-cli-helpers v0.0.0-20171103152739-a7cf72d604cd
	gopkg.in/src-d/go-billy.v4 v4.3.0
	gopkg.in/src-d/go-git.v4 v4.10.0
	gopkg.in/yaml.v2 v2.2.2
)

replace github.com/triggermesh/tm => gitlab.com/gitlab-org/serverless/tm v0.0.15

replace go.opencensus.io => go.opencensus.io v0.20.2

replace contrib.go.opencensus.io/exporter/stackdriver => contrib.go.opencensus.io/exporter/stackdriver v0.10.2
